<svg width="10" height="10" viewBox="0 0 10 10" fill="none" xmlns="http://www.w3.org/2000/svg">
<rect x="6" y="8" width="4" height="1" fill="#E65245"/>
<path d="M6 9V8H7L6 9Z" fill="#F2836D"/>
<path d="M2 5L0 3L2 1V5Z" fill="white"/>
<path d="M0 3V7L2 5L0 3Z" fill="#E65245"/>
<path d="M0 7L2 9V5L0 7Z" fill="#F2836D"/>
<path d="M6 5L2 1V5H6Z" fill="#F2836D"/>
<path d="M2 5V9L6 5H2Z" fill="#E65245"/>
</svg>
